com\testing\di\core\readers\kafka\DefaultPartitioner.class
com\testing\di\core\readers\kafka\MessageConsumer$1.class
com\testing\di\core\audit\RecordAuditor.class
com\testing\di\core\validators\errors\ValidatorExecution.class
com\testing\di\core\transformers\Transformer.class
com\testing\di\core\readers\impl\FileSystemKafkaProducer.class
com\testing\di\core\readers\IoSystem.class
com\testing\di\core\audit\Record.class
com\testing\di\core\readers\kafka\BasicConsumerService.class
com\testing\di\core\transformers\ByteTransformer.class
com\testing\di\core\validators\errors\ValidatorExecution$ValidatorResult.class
com\testing\di\util\Notification.class
com\testing\di\core\processors\PurgeHandler.class
com\testing\di\core\validators\ValidationTypes.class
com\testing\di\decoders\IntegerDecoder.class
com\testing\di\core\readers\kafka\Daemon$Server.class
com\testing\di\core\validators\errors\package-info.class
com\testing\di\core\jpa\DateConverter.class
com\testing\di\core\readers\kafka\MessageConsumer.class
com\testing\di\core\processors\KeyFinder.class
com\testing\di\core\validators\SourceTypes.class
com\testing\di\core\validators\XslValidator$1.class
com\testing\di\util\ConnectionManager.class
com\testing\di\core\validators\XslValidator$ClasspathResourceURIResolver.class
com\testing\di\core\readers\kafka\ConsumerService.class
com\testing\di\util\HaltJvm$1.class
com\testing\di\core\audit\Validation.class
com\testing\di\util\MailSender.class
com\testing\di\core\audit\InboundMessage.class
com\testing\di\core\validators\ValidationContext.class
com\testing\di\core\audit\impl\ValidationLoggerImpl.class
com\testing\di\core\validators\errors\ValidatorExecution$Validator.class
com\testing\di\core\processors\Handler.class
com\testing\di\core\validators\ValidationError.class
com\testing\di\core\processors\DefaultRouter.class
com\testing\di\core\audit\ValidationLogger.class
com\testing\di\core\audit\InboundRecord.class
com\testing\di\core\validators\XsdLSInput.class
com\testing\di\core\validators\ResourceResolver.class
com\testing\di\core\validators\XmlValidator.class
com\testing\di\core\readers\kafka\Daemon.class
com\testing\di\core\validators\custom\CountryValidator.class
com\testing\di\core\validators\XslValidator.class
com\testing\di\core\readers\kafka\MessageSender.class
com\testing\di\core\validators\DefaultXmlValidator.class
com\testing\di\decoders\BigDecimalDecoder.class
com\testing\di\core\validators\errors\ObjectFactory.class
com\testing\di\core\validators\Validator.class
com\testing\di\core\processors\DefaultProcessor.class
com\testing\di\util\CryptoDataSource.class
com\testing\di\core\audit\Auditor.class
com\testing\di\util\DefaultNotificationHandler.class
com\testing\di\util\HaltJvm.class
com\testing\di\util\JaxbInitializer.class
com\testing\di\core\readers\kafka\Publisher.class
com\testing\di\core\readers\impl\FileSystemKafkaProducer$1RunnerThread.class
com\testing\di\core\validators\DefaultXmlValidator$XsdErrorHandler.class
com\testing\di\core\audit\impl\RecordAuditorImpl.class
com\testing\di\util\KeyPropertyReader.class
com\testing\di\util\NotificationHandler.class
com\testing\di\core\audit\impl\MessageAuditorImpl.class
com\testing\di\core\audit\MessageAuditor.class
com\testing\di\core\readers\kafka\BasicConsumerService$1.class
com\testing\di\core\validators\ValidationErrors.class
com\testing\di\core\readers\impl\FileSystem.class
com\testing\di\core\processors\DefaultPurgeHandler.class
com\testing\di\util\ExecutionMonitor.class
com\testing\di\core\processors\AbstractProcessor.class
com\testing\di\core\processors\Message.class
com\testing\di\decoders\LongDecoder.class
